{
"make_a_slight_right_turn":"Légèrement à droite.",
"make_a_right_turn":"Tournez à droite.",
"make_a_sharp_right_turn":"À droite toute.",
"enter_the_roundabout":"Prenez le rond-point.",
"leave_the_roundabout":"Sortir du rond-point.",
"make_a_slight_left_turn":"Légèrement à gauche.",
"make_a_left_turn":"Tournez à gauche.",
"make_a_sharp_left_turn":"À gauche toute.",
"make_a_u_turn":"Faites demi-tour.",
"go_straight":"Continuez tout droit.",
"exit":"Sortie.",
"destination":"Vous arriverez.",
"you_have_reached_the_destination":"Vous êtes arrivé.",
"in_50_meters":"Dans cinquante mètres",
"in_100_meters":"Dans cents mètres",
"in_200_meters":"Dans deux cents mètres",
"in_250_meters":"Dans deux cents cinquante mètres",
"in_300_meters":"Dans trois cents mètres",
"in_400_meters":"Dans quatre cents mètres",
"in_500_meters":"Dans cinq cents mètres",
"in_600_meters":"Dans six cents mètres",
"in_700_meters":"Dans sept cents mètres",
"in_750_meters":"Dans sept cents cinquante mètres",
"in_800_meters":"Dans huit cents mètres",
"in_900_meters":"Dans neuf cents mètres",
"in_1_kilometer":"Dans un kilomètre",
"in_1_5_kilometers":"Dans un virgule cinq kilomètre",
"in_2_kilometers":"Dans deux kilomètres",
"in_2_5_kilometers":"Dans deux virgule cinq kilomètres",
"in_3_kilometers":"Dans trois kilomètres",
"then":"Puis",
"take_the_1_exit":"Prenez la première sortie.",
"take_the_2_exit":"Prenez la deuxième sortie.",
"take_the_3_exit":"Prenez la troisième sortie.",
"take_the_4_exit":"Prenez la quatrième sortie.",
"take_the_5_exit":"Prenez la cinquième sortie.",
"take_the_6_exit":"Prenez la sixième sortie.",
"take_the_7_exit":"Prenez la septième sortie.",
"take_the_8_exit":"Prenez la huitième sortie.",
"take_the_9_exit":"Prenez la neuvième sortie.",
"take_the_10_exit":"Prenez la dixième sortie.",
"take_the_11_exit":"Prenez la onzième sortie.",
"in_50_feet":"Dans cinquante pieds",
"in_100_feet":"Dans cent pieds",
"in_200_feet":"Dans deux cents pieds",
"in_300_feet":"Dans trois cents pieds",
"in_400_feet":"Dans quatre cents pieds",
"in_500_feet":"Dans cinq cents pieds",
"in_600_feet":"Dans six cents pieds",
"in_700_feet":"Dans sept cents pieds",
"in_800_feet":"Dans huit cents pieds",
"in_900_feet":"Dans neuf cents pieds",
"in_1000_feet":"Dans mille pieds",
"in_1500_feet":"Dans mille cinq cents pieds",
"in_2000_feet":"Dans deux mille pieds",
"in_2500_feet":"Dans deux mille cinq cents pieds",
"in_3000_feet":"Dans trois mille pieds",
"in_3500_feet":"Dans trois mille cinq cents pieds",
"in_4000_feet":"Dans quatre mille pieds",
"in_4500_feet":"Dans quatre mille cinq cents pieds",
"in_5000_feet":"Dans cinq mille pieds",
"in_1_mile":"Dans un mile",
"in_1_5_miles":"Dans un virgule cinq mile",
"in_2_miles":"Dans deux miles"
}
