{
"make_a_slight_right_turn":"약간 우회전.",
"make_a_right_turn":"우회전하십시오.",
"make_a_sharp_right_turn":"급우회전.",
"enter_the_roundabout":"로터리 진입입니다.",
"leave_the_roundabout":"원형 교차로에서 나갑니다.",
"make_a_slight_left_turn":"약간 좌회전.",
"make_a_left_turn":"좌회전하십시오.",
"make_a_sharp_left_turn":"급좌회전.",
"make_a_u_turn":"유턴입니다.",
"go_straight":"직진입니다.",
"exit":"출구.",
"destination":"도착할 예정입니다.",
"you_have_reached_the_destination":"도착했습니다.",
"in_50_meters":"오십 미터 앞",
"in_100_meters":"백 미터 앞",
"in_200_meters":"이백 미터 앞",
"in_250_meters":"이백오십 미터 앞",
"in_300_meters":"삼백 미터 앞",
"in_400_meters":"사백 미터 앞",
"in_500_meters":"오백 미터 앞",
"in_600_meters":"육백 미터 앞",
"in_700_meters":"칠백 미터 앞",
"in_750_meters":"칠백오십 미터 앞",
"in_800_meters":"팔백 미터 앞",
"in_900_meters":"구백 미터 앞",
"in_1_kilometer":"일 킬로미터 앞",
"in_1_5_kilometers":"일점오 킬로미터 앞",
"in_2_kilometers":"이 킬로미터 앞",
"in_2_5_kilometers":"이점오 킬로미터 앞",
"in_3_kilometers":"삼 킬로미터 앞",
"then":"그 다음",
"take_the_1_exit":"첫 번째 출구입니다.",
"take_the_2_exit":"두 번째 출구입니다.",
"take_the_3_exit":"세 번째 출구입니다.",
"take_the_4_exit":"네 번째 출구입니다.",
"take_the_5_exit":"다섯 번째 출구입니다.",
"take_the_6_exit":"여섯 번째 출구입니다.",
"take_the_7_exit":"일곱 번째 출구입니다.",
"take_the_8_exit":"여덟 번째 출구입니다.",
"take_the_9_exit":"아홉 번째 출구입니다.",
"take_the_10_exit":"열 번째 출구입니다.",
"take_the_11_exit":"열한 번째 출구입니다.",
"in_50_feet":"오십 피트 앞",
"in_100_feet":"백 피트 앞",
"in_200_feet":"이백 피트 앞",
"in_300_feet":"삼백 피트 앞",
"in_400_feet":"사백 피트 앞",
"in_500_feet":"오백 피트 앞",
"in_600_feet":"육백 피트 앞",
"in_700_feet":"칠백 피트 앞",
"in_800_feet":"팔백 피트 앞",
"in_900_feet":"구백 피트 앞",
"in_1000_feet":"천 피트 앞",
"in_1500_feet":"천오백 피트 앞",
"in_2000_feet":"이천 피트 앞",
"in_2500_feet":"이천오백 피트 앞",
"in_3000_feet":"삼천 피트 앞",
"in_3500_feet":"삼천오백 피트 앞",
"in_4000_feet":"사천 피트 앞",
"in_4500_feet":"사천오백 피트 앞",
"in_5000_feet":"오천 피트 앞",
"in_1_mile":"일 마일 앞",
"in_1_5_miles":"일점오 마일 앞",
"in_2_miles":"이 마일 앞"
}
